<?xml version="1.0" encoding="UTF-8" standalone="no"?>
<!-- Created with Inkscape (http://www.inkscape.org/) -->

<svg
   xmlns:dc="http://purl.org/dc/elements/1.1/"
   xmlns:cc="http://creativecommons.org/ns#"
   xmlns:rdf="http://www.w3.org/1999/02/22-rdf-syntax-ns#"
   xmlns:svg="http://www.w3.org/2000/svg"
   xmlns="http://www.w3.org/2000/svg"
   xmlns:sodipodi="http://sodipodi.sourceforge.net/DTD/sodipodi-0.dtd"
   xmlns:inkscape="http://www.inkscape.org/namespaces/inkscape"
   width="318"
   height="310"
   id="svg2"
   version="1.1"
   inkscape:version="0.48.4 r9939"
   sodipodi:docname="callBackCtrl.svg"
   inkscape:export-filename="/home/sergio/GUIOctave/GUIEditor/v41/srcGuiEditor/src/img/callBackCtrl.png"
   inkscape:export-xdpi="15.569962"
   inkscape:export-ydpi="15.569962">
  <defs
     id="defs4">
    <filter
       inkscape:collect="always"
       id="filter3812"
       color-interpolation-filters="sRGB">
      <feGaussianBlur
         inkscape:collect="always"
         stdDeviation="3.339455"
         id="feGaussianBlur3814" />
    </filter>
  </defs>
  <sodipodi:namedview
     id="base"
     pagecolor="#ffffff"
     bordercolor="#666666"
     borderopacity="1.0"
     inkscape:pageopacity="0.0"
     inkscape:pageshadow="2"
     inkscape:zoom="1.979899"
     inkscape:cx="145.43632"
     inkscape:cy="140.47941"
     inkscape:document-units="px"
     inkscape:current-layer="layer1"
     showgrid="false"
     fit-margin-top="0"
     fit-margin-left="0"
     fit-margin-right="0"
     fit-margin-bottom="0" />
  <metadata
     id="metadata7">
    <rdf:RDF>
      <cc:Work
         rdf:about="">
        <dc:format>image/svg+xml</dc:format>
        <dc:type
           rdf:resource="http://purl.org/dc/dcmitype/StillImage" />
        <dc:title></dc:title>
      </cc:Work>
    </rdf:RDF>
  </metadata>
  <g
     inkscape:label="Capa 1"
     inkscape:groupmode="layer"
     id="layer1"
     transform="translate(-167.68345,-166.79839)">
    <g
       id="g3790"
       transform="translate(451.42857,0)">
      <path
         sodipodi:type="star"
         style="opacity:0.8;fill:#1a1a1a;fill-opacity:1;stroke:#1a1a1a;stroke-width:4.58750868;stroke-miterlimit:4;stroke-opacity:1;stroke-dasharray:none;stroke-dashoffset:0"
         id="path3785"
         sodipodi:sides="6"
         sodipodi:cx="-363.65491"
         sodipodi:cy="111.04662"
         sodipodi:r1="176.54564"
         sodipodi:r2="98.8955"
         sodipodi:arg1="0.74897702"
         sodipodi:arg2="1.2543428"
         inkscape:flatsided="false"
         inkscape:rounded="0.5"
         inkscape:randomized="0"
         d="m -234.35539,231.25477 c -34.02189,37.96237 -49.79645,-41.2004 -98.52342,-26.2233 -50.19701,15.42895 -18.83726,88.89478 -70.22964,78.09589 -49.88733,-10.48263 10.78236,-63.72519 -26.55168,-98.43543 -38.46036,-35.75742 -86.40376,28.13384 -102.74784,-21.77271 -15.86544,-48.44501 60.57882,-22.52479 71.97175,-72.21214 11.73664,-51.186363 -67.5665,-60.760934 -32.5182,-99.8685994 34.02189,-37.9623786 49.79644,41.2003984 98.52342,26.2232934 50.19701,-15.4289481 18.83726,-88.894773 70.22964,-78.095889 49.88733,10.482634 -10.78237,63.7251895 26.55167,98.435432 38.46037,35.757415 86.40376,-28.1338381 102.74785,21.772711 15.86543,48.445012 -60.57882,22.524791 -71.97175,72.212142 -11.73665,51.18636 67.5665,60.76093 32.5182,99.8686 z"
         transform="matrix(0.87764994,0,0,0.8662532,201.41659,228.6039)" />
      <path
         transform="matrix(0.87764994,0,0,0.8662532,187.41659,222.6039)"
         d="m -234.35539,231.25477 c -34.02189,37.96237 -49.79645,-41.2004 -98.52342,-26.2233 -50.19701,15.42895 -18.83726,88.89478 -70.22964,78.09589 -49.88733,-10.48263 10.78236,-63.72519 -26.55168,-98.43543 -38.46036,-35.75742 -86.40376,28.13384 -102.74784,-21.77271 -15.86544,-48.44501 60.57882,-22.52479 71.97175,-72.21214 11.73664,-51.186363 -67.5665,-60.760934 -32.5182,-99.8685994 34.02189,-37.9623786 49.79644,41.2003984 98.52342,26.2232934 50.19701,-15.4289481 18.83726,-88.894773 70.22964,-78.095889 49.88733,10.482634 -10.78237,63.7251895 26.55167,98.435432 38.46037,35.757415 86.40376,-28.1338381 102.74785,21.772711 15.86543,48.445012 -60.57882,22.524791 -71.97175,72.212142 -11.73665,51.18636 67.5665,60.76093 32.5182,99.8686 z"
         inkscape:randomized="0"
         inkscape:rounded="0.5"
         inkscape:flatsided="false"
         sodipodi:arg2="1.2543428"
         sodipodi:arg1="0.74897702"
         sodipodi:r2="98.8955"
         sodipodi:r1="176.54564"
         sodipodi:cy="111.04662"
         sodipodi:cx="-363.65491"
         sodipodi:sides="6"
         id="path3013"
         style="opacity:0.8;fill:#999999;fill-opacity:1;stroke:#1a1a1a;stroke-width:4.58750868;stroke-miterlimit:4;stroke-opacity:1;stroke-dasharray:none;stroke-dashoffset:0"
         sodipodi:type="star" />
      <path
         transform="matrix(1.0746867,0,0,1.1284211,85.773354,-98.631092)"
         d="m -179.80715,366.6152 c 0,11.15784 -9.49748,20.20305 -21.21321,20.20305 -11.71572,0 -21.2132,-9.04521 -21.2132,-20.20305 0,-11.15783 9.49748,-20.20305 21.2132,-20.20305 11.71573,0 21.21321,9.04522 21.21321,20.20305 z"
         sodipodi:ry="20.203051"
         sodipodi:rx="21.213203"
         sodipodi:cy="366.6152"
         sodipodi:cx="-201.02036"
         id="path3783"
         style="opacity:0.8;fill:#333333;fill-opacity:1;stroke:#1a1a1a;stroke-width:4;stroke-miterlimit:4;stroke-opacity:1;stroke-dasharray:none;stroke-dashoffset:0"
         sodipodi:type="arc" />
      <path
         sodipodi:nodetypes="sssss"
         inkscape:connector-curvature="0"
         id="path3787"
         d="m -107.83068,321.42499 c -2.23055,7.59127 -8.67338,15.53344 -19.3395,16.17124 -11.01905,0.6589 -17.43584,-2.64385 -17.43584,-14.71815 0,-12.07429 9.61741,-21.86245 21.48108,-21.86245 11.86368,0 17.48736,12.94551 15.29426,20.40936 z"
         style="opacity:0.8;fill:#ffffff;fill-opacity:1;stroke:#1a1a1a;stroke-width:4.18722153;stroke-miterlimit:4;stroke-opacity:1;stroke-dashoffset:0" />
    </g>
  </g>
</svg>
