<?xml version="1.0" encoding="UTF-8" standalone="no"?>
<!-- Created with Inkscape (http://www.inkscape.org/) -->

<svg
   xmlns:dc="http://purl.org/dc/elements/1.1/"
   xmlns:cc="http://creativecommons.org/ns#"
   xmlns:rdf="http://www.w3.org/1999/02/22-rdf-syntax-ns#"
   xmlns:svg="http://www.w3.org/2000/svg"
   xmlns="http://www.w3.org/2000/svg"
   xmlns:sodipodi="http://sodipodi.sourceforge.net/DTD/sodipodi-0.dtd"
   xmlns:inkscape="http://www.inkscape.org/namespaces/inkscape"
   width="128"
   height="128"
   id="svg2"
   version="1.1"
   inkscape:version="0.48.4 r9939"
   sodipodi:docname="dlgItem.svg"
   inkscape:export-filename="/home/sergio/GUIOctave/GUIEditor/v35/srcGuiEditor/src/img/dlgItem.png"
   inkscape:export-xdpi="90"
   inkscape:export-ydpi="90">
  <defs
     id="defs4" />
  <sodipodi:namedview
     id="base"
     pagecolor="#ffffff"
     bordercolor="#666666"
     borderopacity="1.0"
     inkscape:pageopacity="0.0"
     inkscape:pageshadow="2"
     inkscape:zoom="1.979899"
     inkscape:cx="65.592663"
     inkscape:cy="58.289451"
     inkscape:document-units="px"
     inkscape:current-layer="layer1"
     showgrid="false" />
  <metadata
     id="metadata7">
    <rdf:RDF>
      <cc:Work
         rdf:about="">
        <dc:format>image/svg+xml</dc:format>
        <dc:type
           rdf:resource="http://purl.org/dc/dcmitype/StillImage" />
        <dc:title></dc:title>
      </cc:Work>
    </rdf:RDF>
  </metadata>
  <g
     inkscape:label="Capa 1"
     inkscape:groupmode="layer"
     id="layer1"
     transform="translate(0,-924.36218)">
    <path
       style="fill:none;stroke:#000000;stroke-width:1px;stroke-linecap:butt;stroke-linejoin:miter;stroke-opacity:1"
       d="m 17.425131,117.89847 0,-108.0254023 69.953064,0 25.445435,24.6878213 0,83.337581 z"
       id="path2985"
       inkscape:connector-curvature="0"
       transform="translate(0,924.36218)"
       sodipodi:nodetypes="cccccc" />
    <path
       sodipodi:nodetypes="ccc"
       inkscape:connector-curvature="0"
       id="path3757"
       d="m 86.00954,935.66925 0,24.8547 25.38009,0"
       style="fill:none;stroke:#c8c8c8;stroke-width:2;stroke-linecap:butt;stroke-linejoin:miter;stroke-miterlimit:4;stroke-opacity:1;stroke-dasharray:none" />
    <path
       style="fill:none;stroke:#c8c8c8;stroke-width:2;stroke-linecap:butt;stroke-linejoin:miter;stroke-miterlimit:4;stroke-opacity:1;stroke-dasharray:none"
       d="m 114.27351,37.086271 0,82.453699 -93.565383,0"
       id="path3759"
       inkscape:connector-curvature="0"
       transform="translate(0,924.36218)"
       sodipodi:nodetypes="ccc" />
    <g
       id="g3849"
       transform="matrix(0.92507205,0,0,1,44.448167,-1.5152289)">
      <rect
         ry="0"
         y="962.96368"
         x="-19.916677"
         height="68.942909"
         width="87.057983"
         id="rect3822"
         style="fill:#e6e6e6;fill-opacity:1;stroke:none" />
      <g
         id="g3840">
        <rect
           style="fill:#4d4d4d;fill-opacity:1;stroke:none"
           id="rect3824"
           width="87.630737"
           height="8.8388348"
           x="-20.203051"
           y="954.12488" />
        <rect
           style="fill:#4d4d4d;fill-opacity:1;stroke:none"
           id="rect3826"
           width="23.233509"
           height="7.5761442"
           x="-11.111678"
           y="1014.9865" />
        <rect
           y="1014.4814"
           x="36.870567"
           height="7.5761442"
           width="23.233509"
           id="rect3828"
           style="fill:#4d4d4d;fill-opacity:1;stroke:none" />
        <rect
           y="1013.2391"
           x="-12.606603"
           height="7.5761442"
           width="23.233509"
           id="rect3830"
           style="fill:#b3b3b3;fill-opacity:1;stroke:#2a2a2a;stroke-opacity:1" />
        <rect
           style="fill:#b3b3b3;fill-opacity:1;stroke:#2a2a2a;stroke-opacity:1"
           id="rect3832"
           width="23.233509"
           height="7.5761442"
           x="35.375641"
           y="1012.7339" />
        <path
           style="fill:none;stroke:#b4b4b4;stroke-width:1px;stroke-linecap:butt;stroke-linejoin:miter;stroke-opacity:0.99607843"
           d="m 25.632621,978.87358 0,6.56599 28.158002,0"
           id="path3834"
           inkscape:connector-curvature="0"
           sodipodi:nodetypes="ccc" />
        <path
           sodipodi:nodetypes="ccc"
           inkscape:connector-curvature="0"
           id="path3836"
           d="m 53.790623,985.43957 0,-6.56599 -28.158002,0"
           style="fill:none;stroke:#393939;stroke-width:1px;stroke-linecap:butt;stroke-linejoin:miter;stroke-opacity:1" />
      </g>
    </g>
    <path
       style="fill:#ffffff;stroke:#000000;stroke-width:1px;stroke-linecap:butt;stroke-linejoin:miter;stroke-opacity:1"
       d="m 87.504464,10.06469 0,24.854702 25.380086,0 z"
       id="path3755"
       inkscape:connector-curvature="0"
       transform="translate(0,924.36218)"
       sodipodi:nodetypes="cccc" />
  </g>
</svg>
